{
    "defaultCommandTimeout": 6000,
    "viewportHeight": 1080,
    "viewportWidth": 1920,
    "chromeWebSecurity": false,
    "reporter": "cypress-multi-reporters",
    "screenshotsFolder": "cypress/reports/mochareports/assets",
    "reporterOptions": {
        "reporterEnabled": "mochawesome",
        "mochawesomeReporterOptions": {
            "reportDir": "cypress/reports/mocha",
            "overwrite": false,
            "html": false,
            "json": true
        }
    },
    "retries": {
        "runMode": 1,
        "openMode": 1
    },
    "video": false,
    "experimentalStudio": true}
